Project 1: Approval Ratings During The Mueller Investigation
…
3. Wrangling

Using the 6 dplyr functions:

The dplyr functions were first used to create a table called ‘approvals’, which is an overview of the approval ratings including a new variable for the difference between Trump and Mueller’s ratings, called ‘Difference_In_Approval’. For this new variable, a negative difference indicates that Mueller was less popular than Trump at the time, whereas a positive difference indicates when he was more popular. A glimpse is shown below. Exploration of the dataset revealed that Mueller’s approval jumped rapidly up and down, sometimes being greatly favored and other times greatly unfavored, whereas Trump’s approval remained relatively consistent and slightly increased throughout the investigation.

Secondly, the filter function was used to specifically analyze these variables when CNN conducted the poll. Interestingly, these polls primarily found a large difference in approval rating in favor of Mueller from December 2017 to late 2018.

approvals <- polling %>% mutate(Difference_In_Approval=(approve.x-adjusted_approve)) %>% select(end, Mueller_Approval=approve.x, Trump_Approval=adjusted_approve, Difference_In_Approval) 

approvals %>% group_by(end) %>% summarise(mean(Mueller_Approval), mean(Trump_Approval), mean(Difference_In_Approval)) %>% arrange(desc(end))

## # A tibble: 32 x 4
##    end        `mean(Mueller_Appro… `mean(Trump_Appro… `mean(Difference_In_…
##    <date>                    <dbl>              <dbl>                 <dbl>
##  1 2018-08-12                   47               41.8                  5.17
##  2 2018-08-07                   35               42.8                 -7.85
##  3 2018-07-31                   36               41.5                 -5.52
##  4 2018-07-24                   35               42.1                 -7.08
##  5 2018-07-14                   36               40.2                 -4.20
##  6 2018-07-11                   48               41.6                  6.37
##  7 2018-07-02                   49               42.2                  6.82
##  8 2018-06-19                   35               43.0                 -7.99
##  9 2018-06-17                   41               43.4                 -2.42
## 10 2018-06-12                   34               42.6                 -8.63
## # … with 22 more rows
…
Average Trump and Mueller Approval Percentage Grouped by Date of Poll

approvals %>% group_by(end) %>% summarise(., Avg_Mueller_Approval=mean(Mueller_Approval), Avg_Trump_Approval=mean(Trump_Approval), Difference_In_Avg_Approval=(mean(Mueller_Approval)-mean(Trump_Approval))) %>% arrange(desc(end))

## # A tibble: 32 x 4
##    end        Avg_Mueller_Approv… Avg_Trump_Approval Difference_In_Avg_App…
##    <date>                   <dbl>              <dbl>                  <dbl>
##  1 2018-08-12                  47               41.8                   5.17
##  2 2018-08-07                  35               42.8                  -7.85
##  3 2018-07-31                  36               41.5                  -5.52
##  4 2018-07-24                  35               42.1                  -7.08
##  5 2018-07-14                  36               40.2                  -4.20
##  6 2018-07-11                  48               41.6                   6.37
##  7 2018-07-02                  49               42.2                   6.82
##  8 2018-06-19                  35               43.0                  -7.99
##  9 2018-06-17                  41               43.4                  -2.42
## 10 2018-06-12                  34               42.6                  -8.63
## # … with 22 more rows
…
